{
    "homepage": "https://github.com/be5invis/Sarasa-Gothic",
    "version": "0.36.5",
    "description": "Sarasa Gothic is a CJK programming font based on Iosevka and Source Han Sans.",
    "checkver": {
        "url": "https://github.com/be5invis/Sarasa-Gothic/releases/latest",
        "re": ">Sarasa Gothic version (.*?)<"
    },
    "url": "https://github.com/be5invis/Sarasa-Gothic/releases/download/v0.36.5/sarasa-gothic-ttc-0.36.5.7z",
    "hash": "ef03cfe9dde10fe744b1ff8c5a044dc774b1e1389cd4a9d734d230a0fd1f311e",
    "autoupdate": {
        "url": "https://github.com/be5invis/Sarasa-Gothic/releases/download/v$version/sarasa-gothic-ttc-$version.7z"
    }
}
