{
    "homepage": "https://github.com/be5invis/Iosevka",
    "version": "15.5.1",
    "description": "Slender typeface for code, from code.",
    "checkver": {
        "url": "https://github.com/be5invis/Iosevka/releases/latest",
        "re": ">Iosevka version (.*?)<"
    },
    "url": "https://github.com/be5invis/Iosevka/releases/download/v15.5.1/ttf-unhinted-iosevka-15.5.1.zip",
    "hash": "d3b75fa66dbe912eb9ea3e47d8753f4084d1570ef10d7a766c9cb954910aaa92",
    "autoupdate": {
        "url": "https://github.com/be5invis/Iosevka/releases/download/v$version/ttf-unhinted-iosevka-$version.zip"
    },
    "installer": {
        "keep": "false",
        "script": [
            "Write-Output \"https://github.com/be5invis/Iosevka/releases/download/v$version/ttf-unhinted-iosevka-aile-$version.zip\" \"https://github.com/be5invis/Iosevka/releases/download/v$version/ttf-unhinted-iosevka-curly-$version.zip\" \"https://github.com/be5invis/Iosevka/releases/download/v$version/ttf-unhinted-iosevka-curly-slab-$version.zip\" \"https://github.com/be5invis/Iosevka/releases/download/v$version/ttf-unhinted-iosevka-etoile-$version.zip\" \"https://github.com/be5invis/Iosevka/releases/download/v$version/ttf-unhinted-iosevka-fixed-$version.zip\" \"https://github.com/be5invis/Iosevka/releases/download/v$version/ttf-unhinted-iosevka-fixed-curly-$version.zip\" \"https://github.com/be5invis/Iosevka/releases/download/v$version/ttf-unhinted-iosevka-fixed-curly-slab-$version.zip\" \"https://github.com/be5invis/Iosevka/releases/download/v$version/ttf-unhinted-iosevka-fixed-slab-$version.zip\" \"https://github.com/be5invis/Iosevka/releases/download/v$version/ttf-unhinted-iosevka-fixed-ss01-$version.zip\" \"https://github.com/be5invis/Iosevka/releases/download/v$version/ttf-unhinted-iosevka-fixed-ss02-$version.zip\" \"https://github.com/be5invis/Iosevka/releases/download/v$version/ttf-unhinted-iosevka-fixed-ss03-$version.zip\" \"https://github.com/be5invis/Iosevka/releases/download/v$version/ttf-unhinted-iosevka-fixed-ss04-$version.zip\" \"https://github.com/be5invis/Iosevka/releases/download/v$version/ttf-unhinted-iosevka-fixed-ss05-$version.zip\" \"https://github.com/be5invis/Iosevka/releases/download/v$version/ttf-unhinted-iosevka-fixed-ss06-$version.zip\" \"https://github.com/be5invis/Iosevka/releases/download/v$version/ttf-unhinted-iosevka-fixed-ss07-$version.zip\" \"https://github.com/be5invis/Iosevka/releases/download/v$version/ttf-unhinted-iosevka-fixed-ss08-$version.zip\" \"https://github.com/be5invis/Iosevka/releases/download/v$version/ttf-unhinted-iosevka-fixed-ss09-$version.zip\" \"https://github.com/be5invis/Iosevka/releases/download/v$version/ttf-unhinted-iosevka-fixed-ss10-$version.zip\" \"https://github.com/be5invis/Iosevka/releases/download/v$version/ttf-unhinted-iosevka-fixed-ss11-$version.zip\" \"https://github.com/be5invis/Iosevka/releases/download/v$version/ttf-unhinted-iosevka-fixed-ss12-$version.zip\" \"https://github.com/be5invis/Iosevka/releases/download/v$version/ttf-unhinted-iosevka-fixed-ss13-$version.zip\" \"https://github.com/be5invis/Iosevka/releases/download/v$version/ttf-unhinted-iosevka-fixed-ss14-$version.zip\" \"https://github.com/be5invis/Iosevka/releases/download/v$version/ttf-unhinted-iosevka-fixed-ss15-$version.zip\" \"https://github.com/be5invis/Iosevka/releases/download/v$version/ttf-unhinted-iosevka-fixed-ss16-$version.zip\" \"https://github.com/be5invis/Iosevka/releases/download/v$version/ttf-unhinted-iosevka-fixed-ss17-$version.zip\" \"https://github.com/be5invis/Iosevka/releases/download/v$version/ttf-unhinted-iosevka-fixed-ss18-$version.zip\" \"https://github.com/be5invis/Iosevka/releases/download/v$version/ttf-unhinted-iosevka-slab-$version.zip\" \"https://github.com/be5invis/Iosevka/releases/download/v$version/ttf-unhinted-iosevka-ss01-$version.zip\" \"https://github.com/be5invis/Iosevka/releases/download/v$version/ttf-unhinted-iosevka-ss02-$version.zip\" \"https://github.com/be5invis/Iosevka/releases/download/v$version/ttf-unhinted-iosevka-ss03-$version.zip\" \"https://github.com/be5invis/Iosevka/releases/download/v$version/ttf-unhinted-iosevka-ss04-$version.zip\" \"https://github.com/be5invis/Iosevka/releases/download/v$version/ttf-unhinted-iosevka-ss05-$version.zip\" \"https://github.com/be5invis/Iosevka/releases/download/v$version/ttf-unhinted-iosevka-ss06-$version.zip\" \"https://github.com/be5invis/Iosevka/releases/download/v$version/ttf-unhinted-iosevka-ss07-$version.zip\" \"https://github.com/be5invis/Iosevka/releases/download/v$version/ttf-unhinted-iosevka-ss08-$version.zip\" \"https://github.com/be5invis/Iosevka/releases/download/v$version/ttf-unhinted-iosevka-ss09-$version.zip\" \"https://github.com/be5invis/Iosevka/releases/download/v$version/ttf-unhinted-iosevka-ss10-$version.zip\" \"https://github.com/be5invis/Iosevka/releases/download/v$version/ttf-unhinted-iosevka-ss11-$version.zip\" \"https://github.com/be5invis/Iosevka/releases/download/v$version/ttf-unhinted-iosevka-ss12-$version.zip\" \"https://github.com/be5invis/Iosevka/releases/download/v$version/ttf-unhinted-iosevka-ss13-$version.zip\" \"https://github.com/be5invis/Iosevka/releases/download/v$version/ttf-unhinted-iosevka-ss14-$version.zip\" \"https://github.com/be5invis/Iosevka/releases/download/v$version/ttf-unhinted-iosevka-ss15-$version.zip\" \"https://github.com/be5invis/Iosevka/releases/download/v$version/ttf-unhinted-iosevka-ss16-$version.zip\" \"https://github.com/be5invis/Iosevka/releases/download/v$version/ttf-unhinted-iosevka-ss17-$version.zip\" \"https://github.com/be5invis/Iosevka/releases/download/v$version/ttf-unhinted-iosevka-ss18-$version.zip\" \"https://github.com/be5invis/Iosevka/releases/download/v$version/ttf-unhinted-iosevka-term-$version.zip\" \"https://github.com/be5invis/Iosevka/releases/download/v$version/ttf-unhinted-iosevka-term-curly-$version.zip\" \"https://github.com/be5invis/Iosevka/releases/download/v$version/ttf-unhinted-iosevka-term-curly-slab-$version.zip\" \"https://github.com/be5invis/Iosevka/releases/download/v$version/ttf-unhinted-iosevka-term-slab-$version.zip\" \"https://github.com/be5invis/Iosevka/releases/download/v$version/ttf-unhinted-iosevka-term-ss01-$version.zip\" \"https://github.com/be5invis/Iosevka/releases/download/v$version/ttf-unhinted-iosevka-term-ss02-$version.zip\" \"https://github.com/be5invis/Iosevka/releases/download/v$version/ttf-unhinted-iosevka-term-ss03-$version.zip\" \"https://github.com/be5invis/Iosevka/releases/download/v$version/ttf-unhinted-iosevka-term-ss04-$version.zip\" \"https://github.com/be5invis/Iosevka/releases/download/v$version/ttf-unhinted-iosevka-term-ss05-$version.zip\" \"https://github.com/be5invis/Iosevka/releases/download/v$version/ttf-unhinted-iosevka-term-ss06-$version.zip\" \"https://github.com/be5invis/Iosevka/releases/download/v$version/ttf-unhinted-iosevka-term-ss07-$version.zip\" \"https://github.com/be5invis/Iosevka/releases/download/v$version/ttf-unhinted-iosevka-term-ss08-$version.zip\" \"https://github.com/be5invis/Iosevka/releases/download/v$version/ttf-unhinted-iosevka-term-ss09-$version.zip\" \"https://github.com/be5invis/Iosevka/releases/download/v$version/ttf-unhinted-iosevka-term-ss10-$version.zip\" \"https://github.com/be5invis/Iosevka/releases/download/v$version/ttf-unhinted-iosevka-term-ss11-$version.zip\" \"https://github.com/be5invis/Iosevka/releases/download/v$version/ttf-unhinted-iosevka-term-ss12-$version.zip\" \"https://github.com/be5invis/Iosevka/releases/download/v$version/ttf-unhinted-iosevka-term-ss13-$version.zip\" \"https://github.com/be5invis/Iosevka/releases/download/v$version/ttf-unhinted-iosevka-term-ss14-$version.zip\" \"https://github.com/be5invis/Iosevka/releases/download/v$version/ttf-unhinted-iosevka-term-ss15-$version.zip\" \"https://github.com/be5invis/Iosevka/releases/download/v$version/ttf-unhinted-iosevka-term-ss16-$version.zip\" \"https://github.com/be5invis/Iosevka/releases/download/v$version/ttf-unhinted-iosevka-term-ss17-$version.zip\" \"https://github.com/be5invis/Iosevka/releases/download/v$version/ttf-unhinted-iosevka-term-ss18-$version.zip\" | %{wget.exe -nv --directory-prefix \"$dir\" \"$_\"}",
            "Get-ChildItem \"$dir\" -Recurse -Include \"*.zip\" | %{7z e -o\"$dir\" -aoa \"$_\"}",
            "Remove-Item \"$dir\" -Recurse -Include \"*.zip\""
        ]
    }
}
