{
    "version": "2.52.1+ocaml-4.10.2",
    "architecture": {
        "32bit": {
            "url": "https://github.com/bcpierce00/unison/releases/download/v2.52.1/unison-v2.52.1+ocaml-4.10.2+i386.windows.zip",
            "hash": "76aa5dd3fec9a77807cf1b2131513a853f4f6f9b1e3ed3c807e26966fc297b01"
        }
    },
    "description": "A file-synchronization tool.",
    "homepage": "https://www.cis.upenn.edu/~bcpierce/unison",
    "license": "GPL-3.0-only",
    "checkver": {
        "url": "https://github.com/bcpierce00/unison/releases/latest",
        "regex": ">(?<filenamedl>unison-v(?<versionall>(?<versionpart>(\\d+\\.)+\\d+)\\+(?<ocamver>ocaml-(\\d+\\.)+\\d+))\\+i386.*windows\\.zip)<",
        "replace": "${versionall}",
        "reverse": true
    },
    "autoupdate": {
        "architecture": {
            "32bit": {
                "url": "https://github.com/bcpierce00/unison/releases/download/v$matchVersionpart/$matchFilenamedl"
            }
        }
    }
}
